{
    "records": [ 
        {
            "data": "eyAic291cmNlaXAiOiAiMTIzLjMzMi4zMi4yMzMiLCAidGVzdCI6ICJ0ZXN0IiB9"
        },
        {
            "data": "eyJ0ZXN0IjogInRlc3QiIH0="
        }
    ]
}
